PWD /home/tate/Documents/Sandbox/MiscText/latex-journalclub
INPUT /usr/local/texlive/2020/texmf.cnf
INPUT /usr/local/texlive/2020/texmf-dist/web2c/texmf.cnf
INPUT /usr/local/texlive/2020/texmf.cnf
INPUT /usr/local/texlive/2020/texmf-dist/web2c/texmf.cnf
INPUT /usr/local/texlive/2020/texmf-var/web2c/euptex/uplatex.fmt
INPUT /home/tate/Documents/Sandbox/MiscText/latex-journalclub/main.tex
OUTPUT output/main.log
INPUT /usr/local/texlive/2020/texmf-dist/tex/platex/jsclasses/jsarticle.cls
INPUT /usr/local/texlive/2020/texmf-dist/tex/platex/jsclasses/jsarticle.cls
INPUT /usr/local/texlive/2020/texmf-dist/fonts/map/fontname/texfonts.map
INPUT /usr/local/texlive/2020/texmf-dist/fonts/tfm/uptex-fonts/jis/upjisr-v.tfm
INPUT /usr/local/texlive/2020/texmf-dist/fonts/tfm/uptex-fonts/jis/upjisr-h.tfm
INPUT /usr/local/texlive/2020/texmf-dist/fonts/tfm/uptex-fonts/jis/upjisr-v.tfm
INPUT /usr/local/texlive/2020/texmf-dist/fonts/tfm/uptex-fonts/jis/upjisr-h.tfm
INPUT /usr/local/texlive/2020/texmf-dist/fonts/tfm/public/cm/cmr8.tfm
INPUT /usr/local/texlive/2020/texmf-dist/tex/platex/jsclasses/jslogo.sty
INPUT /usr/local/texlive/2020/texmf-dist/tex/platex/jsclasses/jslogo.sty
INPUT /usr/local/texlive/2020/texmf-dist/tex/platex/jsclasses/jslogo.sty
INPUT pkg.tex
INPUT pkg.tex
INPUT /usr/local/texlive/2020/texmf-dist/tex/latex/amsmath/amsmath.sty
INPUT /usr/local/texlive/2020/texmf-dist/tex/latex/amsmath/amsmath.sty
INPUT /usr/local/texlive/2020/texmf-dist/tex/latex/amsmath/amstext.sty
INPUT /usr/local/texlive/2020/texmf-dist/tex/latex/amsmath/amstext.sty
INPUT /usr/local/texlive/2020/texmf-dist/tex/latex/amsmath/amsgen.sty
INPUT /usr/local/texlive/2020/texmf-dist/tex/latex/amsmath/amsgen.sty
INPUT /usr/local/texlive/2020/texmf-dist/tex/latex/amsmath/amsbsy.sty
INPUT /usr/local/texlive/2020/texmf-dist/tex/latex/amsmath/amsbsy.sty
INPUT /usr/local/texlive/2020/texmf-dist/tex/latex/amsmath/amsopn.sty
INPUT /usr/local/texlive/2020/texmf-dist/tex/latex/amsmath/amsopn.sty
INPUT /usr/local/texlive/2020/texmf-dist/tex/latex/amsfonts/amsfonts.sty
INPUT /usr/local/texlive/2020/texmf-dist/tex/latex/amsfonts/amsfonts.sty
INPUT /usr/local/texlive/2020/texmf-dist/tex/latex/amsfonts/amssymb.sty
INPUT /usr/local/texlive/2020/texmf-dist/tex/latex/amsfonts/amssymb.sty
INPUT /usr/local/texlive/2020/texmf-dist/tex/latex/mathtools/mathtools.sty
INPUT /usr/local/texlive/2020/texmf-dist/tex/latex/mathtools/mathtools.sty
INPUT /usr/local/texlive/2020/texmf-dist/tex/latex/graphics/keyval.sty
INPUT /usr/local/texlive/2020/texmf-dist/tex/latex/graphics/keyval.sty
INPUT /usr/local/texlive/2020/texmf-dist/tex/latex/tools/calc.sty
INPUT /usr/local/texlive/2020/texmf-dist/tex/latex/tools/calc.sty
INPUT /usr/local/texlive/2020/texmf-dist/tex/latex/mathtools/mhsetup.sty
INPUT /usr/local/texlive/2020/texmf-dist/tex/latex/mathtools/mhsetup.sty
INPUT /usr/local/texlive/2020/texmf-dist/tex/latex/geometry/geometry.sty
INPUT /usr/local/texlive/2020/texmf-dist/tex/latex/geometry/geometry.sty
INPUT /usr/local/texlive/2020/texmf-dist/tex/generic/iftex/ifvtex.sty
INPUT /usr/local/texlive/2020/texmf-dist/tex/generic/iftex/ifvtex.sty
INPUT /usr/local/texlive/2020/texmf-dist/tex/generic/iftex/iftex.sty
INPUT /usr/local/texlive/2020/texmf-dist/tex/generic/iftex/iftex.sty
INPUT /usr/local/texlive/2020/texmf-dist/tex/latex/physics/physics.sty
INPUT /usr/local/texlive/2020/texmf-dist/tex/latex/physics/physics.sty
INPUT /usr/local/texlive/2020/texmf-dist/tex/latex/l3packages/xparse/xparse.sty
INPUT /usr/local/texlive/2020/texmf-dist/tex/latex/l3packages/xparse/xparse.sty
INPUT /usr/local/texlive/2020/texmf-dist/tex/latex/l3kernel/expl3.sty
INPUT /usr/local/texlive/2020/texmf-dist/tex/latex/l3kernel/expl3.sty
INPUT /usr/local/texlive/2020/texmf-dist/tex/latex/l3backend/l3backend-dvipdfmx.def
INPUT /usr/local/texlive/2020/texmf-dist/tex/latex/l3backend/l3backend-dvipdfmx.def
INPUT /usr/local/texlive/2020/texmf-dist/tex/latex/l3packages/xparse/xparse-generic.tex
INPUT /usr/local/texlive/2020/texmf-dist/tex/latex/l3packages/xparse/xparse-generic.tex
INPUT /usr/local/texlive/2020/texmf-dist/tex/latex/graphics/graphicx.sty
INPUT /usr/local/texlive/2020/texmf-dist/tex/latex/graphics/graphicx.sty
INPUT /usr/local/texlive/2020/texmf-dist/tex/latex/graphics/graphics.sty
INPUT /usr/local/texlive/2020/texmf-dist/tex/latex/graphics/graphics.sty
INPUT /usr/local/texlive/2020/texmf-dist/tex/latex/graphics/trig.sty
INPUT /usr/local/texlive/2020/texmf-dist/tex/latex/graphics/trig.sty
INPUT /usr/local/texlive/2020/texmf-dist/tex/latex/graphics-cfg/graphics.cfg
INPUT /usr/local/texlive/2020/texmf-dist/tex/latex/graphics-cfg/graphics.cfg
INPUT /usr/local/texlive/2020/texmf-dist/tex/latex/graphics-def/dvipdfmx.def
INPUT /usr/local/texlive/2020/texmf-dist/tex/latex/graphics-def/dvipdfmx.def
INPUT /usr/local/texlive/2020/texmf-dist/tex/latex/algorithms/algorithm.sty
INPUT /usr/local/texlive/2020/texmf-dist/tex/latex/algorithms/algorithm.sty
INPUT /usr/local/texlive/2020/texmf-dist/tex/latex/float/float.sty
INPUT /usr/local/texlive/2020/texmf-dist/tex/latex/float/float.sty
INPUT /usr/local/texlive/2020/texmf-dist/tex/latex/base/ifthen.sty
INPUT /usr/local/texlive/2020/texmf-dist/tex/latex/base/ifthen.sty
INPUT /usr/local/texlive/2020/texmf-dist/tex/latex/algorithmicx/algpseudocode.sty
INPUT /usr/local/texlive/2020/texmf-dist/tex/latex/algorithmicx/algpseudocode.sty
INPUT /usr/local/texlive/2020/texmf-dist/tex/latex/algorithmicx/algorithmicx.sty
INPUT /usr/local/texlive/2020/texmf-dist/tex/latex/algorithmicx/algorithmicx.sty
INPUT /usr/local/texlive/2020/texmf-dist/tex/latex/hyperref/hyperref.sty
INPUT /usr/local/texlive/2020/texmf-dist/tex/latex/hyperref/hyperref.sty
INPUT /usr/local/texlive/2020/texmf-dist/tex/generic/ltxcmds/ltxcmds.sty
INPUT /usr/local/texlive/2020/texmf-dist/tex/generic/ltxcmds/ltxcmds.sty
INPUT /usr/local/texlive/2020/texmf-dist/tex/latex/pdftexcmds/pdftexcmds.sty
INPUT /usr/local/texlive/2020/texmf-dist/tex/latex/pdftexcmds/pdftexcmds.sty
INPUT /usr/local/texlive/2020/texmf-dist/tex/generic/infwarerr/infwarerr.sty
INPUT /usr/local/texlive/2020/texmf-dist/tex/generic/infwarerr/infwarerr.sty
INPUT /usr/local/texlive/2020/texmf-dist/tex/generic/kvsetkeys/kvsetkeys.sty
INPUT /usr/local/texlive/2020/texmf-dist/tex/generic/kvsetkeys/kvsetkeys.sty
INPUT /usr/local/texlive/2020/texmf-dist/tex/generic/kvdefinekeys/kvdefinekeys.sty
INPUT /usr/local/texlive/2020/texmf-dist/tex/generic/kvdefinekeys/kvdefinekeys.sty
INPUT /usr/local/texlive/2020/texmf-dist/tex/generic/pdfescape/pdfescape.sty
INPUT /usr/local/texlive/2020/texmf-dist/tex/generic/pdfescape/pdfescape.sty
INPUT /usr/local/texlive/2020/texmf-dist/tex/latex/hycolor/hycolor.sty
INPUT /usr/local/texlive/2020/texmf-dist/tex/latex/hycolor/hycolor.sty
INPUT /usr/local/texlive/2020/texmf-dist/tex/latex/letltxmacro/letltxmacro.sty
INPUT /usr/local/texlive/2020/texmf-dist/tex/latex/letltxmacro/letltxmacro.sty
INPUT /usr/local/texlive/2020/texmf-dist/tex/latex/auxhook/auxhook.sty
INPUT /usr/local/texlive/2020/texmf-dist/tex/latex/auxhook/auxhook.sty
INPUT /usr/local/texlive/2020/texmf-dist/tex/latex/kvoptions/kvoptions.sty
INPUT /usr/local/texlive/2020/texmf-dist/tex/latex/kvoptions/kvoptions.sty
INPUT /usr/local/texlive/2020/texmf-dist/tex/latex/hyperref/pd1enc.def
INPUT /usr/local/texlive/2020/texmf-dist/tex/latex/hyperref/pd1enc.def
INPUT /usr/local/texlive/2020/texmf-dist/tex/generic/intcalc/intcalc.sty
INPUT /usr/local/texlive/2020/texmf-dist/tex/generic/intcalc/intcalc.sty
INPUT /usr/local/texlive/2020/texmf-dist/tex/generic/etexcmds/etexcmds.sty
INPUT /usr/local/texlive/2020/texmf-dist/tex/generic/etexcmds/etexcmds.sty
INPUT /usr/local/texlive/2020/texmf-dist/tex/latex/url/url.sty
INPUT /usr/local/texlive/2020/texmf-dist/tex/latex/url/url.sty
INPUT /usr/local/texlive/2020/texmf-dist/tex/generic/bitset/bitset.sty
INPUT /usr/local/texlive/2020/texmf-dist/tex/generic/bitset/bitset.sty
INPUT /usr/local/texlive/2020/texmf-dist/tex/generic/bigintcalc/bigintcalc.sty
INPUT /usr/local/texlive/2020/texmf-dist/tex/generic/bigintcalc/bigintcalc.sty
INPUT /usr/local/texlive/2020/texmf-dist/tex/generic/atbegshi/atbegshi.sty
INPUT /usr/local/texlive/2020/texmf-dist/tex/generic/atbegshi/atbegshi.sty
INPUT /usr/local/texlive/2020/texmf-dist/tex/latex/hyperref/hdvipdfm.def
INPUT /usr/local/texlive/2020/texmf-dist/tex/latex/hyperref/hdvipdfm.def
INPUT /usr/local/texlive/2020/texmf-dist/tex/latex/rerunfilecheck/rerunfilecheck.sty
INPUT /usr/local/texlive/2020/texmf-dist/tex/latex/rerunfilecheck/rerunfilecheck.sty
INPUT /usr/local/texlive/2020/texmf-dist/tex/latex/atveryend/atveryend.sty
INPUT /usr/local/texlive/2020/texmf-dist/tex/latex/atveryend/atveryend.sty
INPUT /usr/local/texlive/2020/texmf-dist/tex/generic/uniquecounter/uniquecounter.sty
INPUT /usr/local/texlive/2020/texmf-dist/tex/generic/uniquecounter/uniquecounter.sty
INPUT /usr/local/texlive/2020/texmf-dist/tex/platex/pxjahyper/pxjahyper.sty
INPUT /usr/local/texlive/2020/texmf-dist/tex/platex/pxjahyper/pxjahyper.sty
INPUT /usr/local/texlive/2020/texmf-dist/tex/latex/etoolbox/etoolbox.sty
INPUT /usr/local/texlive/2020/texmf-dist/tex/latex/etoolbox/etoolbox.sty
INPUT /usr/local/texlive/2020/texmf-dist/tex/latex/etoolbox/etoolbox.sty
INPUT /usr/local/texlive/2020/texmf-dist/tex/latex/bxjatoucs/bxjatoucs.sty
INPUT /usr/local/texlive/2020/texmf-dist/tex/latex/bxjatoucs/bxjatoucs.sty
INPUT /usr/local/texlive/2020/texmf-dist/tex/latex/bxjatoucs/bxjatoucs.sty
INPUT /usr/local/texlive/2020/texmf-dist/tex/generic/ltxcmds/ltxcmds.sty
INPUT /usr/local/texlive/2020/texmf-dist/tex/generic/infwarerr/infwarerr.sty
INPUT /usr/local/texlive/2020/texmf-dist/fonts/tfm/public/bxjatoucs/bxjatoucs-cid.tfm
INPUT /usr/local/texlive/2020/texmf-dist/fonts/tfm/public/bxjatoucs/bxjatoucs-jis.tfm
INPUT /usr/local/texlive/2020/texmf-dist/tex/latex/base/fontenc.sty
INPUT /usr/local/texlive/2020/texmf-dist/tex/latex/base/fontenc.sty
INPUT /usr/local/texlive/2020/texmf-dist/fonts/tfm/jknappen/ec/ecrm1000.tfm
INPUT /usr/local/texlive/2020/texmf-dist/tex/platex/japanese-otf-uptex/otf.sty
INPUT /usr/local/texlive/2020/texmf-dist/tex/platex/japanese-otf-uptex/otf.sty
INPUT /usr/local/texlive/2020/texmf-dist/tex/platex/japanese-otf/ajmacros.sty
INPUT /usr/local/texlive/2020/texmf-dist/tex/platex/japanese-otf/ajmacros.sty
INPUT /usr/local/texlive/2020/texmf-dist/tex/platex/japanese-otf/ajmacros.sty
INPUT /usr/local/texlive/2020/texmf-dist/tex/platex/pxchfon/pxchfon.sty
INPUT /usr/local/texlive/2020/texmf-dist/tex/platex/pxchfon/pxchfon.sty
INPUT /usr/local/texlive/2020/texmf-dist/tex/latex/pxufont/pxufont-ruby.sty
INPUT /usr/local/texlive/2020/texmf-dist/tex/latex/lm/lmodern.sty
INPUT /usr/local/texlive/2020/texmf-dist/tex/latex/lm/lmodern.sty
INPUT /usr/local/texlive/2020/texmf-dist/tex/latex/psnfss/helvet.sty
INPUT /usr/local/texlive/2020/texmf-dist/tex/latex/psnfss/helvet.sty
INPUT /usr/local/texlive/2020/texmf-dist/tex/latex/tools/bm.sty
INPUT /usr/local/texlive/2020/texmf-dist/tex/latex/tools/bm.sty
INPUT /usr/local/texlive/2020/texmf-dist/tex/latex/amscls/amsthm.sty
INPUT /usr/local/texlive/2020/texmf-dist/tex/latex/amscls/amsthm.sty
INPUT /usr/local/texlive/2020/texmf-dist/tex/latex/titlesec/titlesec.sty
INPUT /usr/local/texlive/2020/texmf-dist/tex/latex/titlesec/titlesec.sty
INPUT macro.tex
INPUT macro.tex
INPUT output/main.aux
INPUT output/main.aux
OUTPUT output/main.aux
INPUT /usr/local/texlive/2020/texmf-dist/tex/latex/lm/omllmr.fd
INPUT /usr/local/texlive/2020/texmf-dist/tex/latex/lm/t1lmr.fd
INPUT /usr/local/texlive/2020/texmf-dist/tex/latex/lm/ot1lmr.fd
INPUT /usr/local/texlive/2020/texmf-dist/tex/latex/lm/omslmr.fd
INPUT /usr/local/texlive/2020/texmf-dist/tex/latex/lm/ts1lmr.fd
INPUT /usr/local/texlive/2020/texmf-dist/fonts/tfm/public/japanese-otf-uptex/upnmlminr-v.tfm
INPUT /usr/local/texlive/2020/texmf-dist/fonts/tfm/public/japanese-otf-uptex/upnmlminr-h.tfm
INPUT /usr/local/texlive/2020/texmf-dist/tex/latex/lm/t1lmr.fd
INPUT /usr/local/texlive/2020/texmf-dist/tex/latex/lm/t1lmr.fd
INPUT /usr/local/texlive/2020/texmf-dist/fonts/tfm/public/lm/ec-lmr10.tfm
INPUT /usr/local/texlive/2020/texmf-dist/tex/latex/hyperref/nameref.sty
INPUT /usr/local/texlive/2020/texmf-dist/tex/latex/hyperref/nameref.sty
INPUT /usr/local/texlive/2020/texmf-dist/tex/latex/refcount/refcount.sty
INPUT /usr/local/texlive/2020/texmf-dist/tex/latex/refcount/refcount.sty
INPUT /usr/local/texlive/2020/texmf-dist/tex/generic/gettitlestring/gettitlestring.sty
INPUT /usr/local/texlive/2020/texmf-dist/tex/generic/gettitlestring/gettitlestring.sty
INPUT output/main.out
INPUT output/main.out
INPUT output/main.out
INPUT output/main.out
INPUT output/main.out
INPUT output/main.out
OUTPUT output/main.out
INPUT /usr/local/texlive/2020/texmf-dist/fonts/tfm/public/japanese-otf-uptex/upnmlgothr-v.tfm
INPUT /usr/local/texlive/2020/texmf-dist/fonts/tfm/public/japanese-otf-uptex/upnmlgothr-h.tfm
INPUT /usr/local/texlive/2020/texmf-dist/tex/latex/psnfss/t1phv.fd
INPUT /usr/local/texlive/2020/texmf-dist/tex/latex/psnfss/t1phv.fd
INPUT /usr/local/texlive/2020/texmf-dist/fonts/tfm/adobe/helvetic/phvr8t.tfm
INPUT /usr/local/texlive/2020/texmf-dist/fonts/tfm/public/japanese-otf-uptex/upnmlgothb-v.tfm
INPUT /usr/local/texlive/2020/texmf-dist/fonts/tfm/public/japanese-otf-uptex/upnmlgothb-h.tfm
INPUT /usr/local/texlive/2020/texmf-dist/fonts/tfm/adobe/helvetic/phvb8t.tfm
INPUT /usr/local/texlive/2020/texmf-dist/fonts/tfm/public/japanese-otf-uptex/upnmlgothb-v.tfm
INPUT /usr/local/texlive/2020/texmf-dist/fonts/tfm/public/japanese-otf-uptex/upnmlgothb-h.tfm
INPUT /usr/local/texlive/2020/texmf-dist/fonts/tfm/adobe/helvetic/phvb8t.tfm
INPUT /usr/local/texlive/2020/texmf-dist/fonts/tfm/public/japanese-otf-uptex/upnmlgothb-v.tfm
INPUT /usr/local/texlive/2020/texmf-dist/fonts/tfm/public/japanese-otf-uptex/upnmlgothb-h.tfm
INPUT /usr/local/texlive/2020/texmf-dist/fonts/tfm/adobe/helvetic/phvb8t.tfm
INPUT /usr/local/texlive/2020/texmf-dist/fonts/tfm/public/japanese-otf-uptex/upnmlgothb-v.tfm
INPUT /usr/local/texlive/2020/texmf-dist/fonts/tfm/public/japanese-otf-uptex/upnmlgothb-h.tfm
INPUT /usr/local/texlive/2020/texmf-dist/fonts/tfm/adobe/helvetic/phvb8t.tfm
INPUT /usr/local/texlive/2020/texmf-dist/fonts/tfm/public/japanese-otf-uptex/upnmlminr-v.tfm
INPUT /usr/local/texlive/2020/texmf-dist/fonts/tfm/public/japanese-otf-uptex/upnmlminr-h.tfm
INPUT /usr/local/texlive/2020/texmf-dist/fonts/tfm/public/lm/ec-lmr9.tfm
INPUT /usr/local/texlive/2020/texmf-dist/fonts/tfm/public/japanese-otf-uptex/upnmlgothr-v.tfm
INPUT /usr/local/texlive/2020/texmf-dist/fonts/tfm/public/japanese-otf-uptex/upnmlgothr-h.tfm
INPUT /usr/local/texlive/2020/texmf-dist/fonts/tfm/adobe/helvetic/phvr8t.tfm
INPUT /usr/local/texlive/2020/texmf-dist/fonts/tfm/public/japanese-otf-uptex/upnmlminr-v.tfm
INPUT /usr/local/texlive/2020/texmf-dist/fonts/tfm/public/japanese-otf-uptex/upnmlminr-h.tfm
INPUT /usr/local/texlive/2020/texmf-dist/fonts/tfm/public/lm/ec-lmr12.tfm
INPUT /usr/local/texlive/2020/texmf-dist/fonts/tfm/public/japanese-otf-uptex/upnmlgothr-v.tfm
INPUT /usr/local/texlive/2020/texmf-dist/fonts/tfm/public/japanese-otf-uptex/upnmlgothr-h.tfm
INPUT /usr/local/texlive/2020/texmf-dist/fonts/tfm/adobe/helvetic/phvr8t.tfm
INPUT output/main.bbl
INPUT output/main.bbl
OUTPUT output/main.dvi
INPUT output/main.aux
INPUT output/main.out
INPUT output/main.out
